{
	"info": {
		"_postman_id": "ff192952-10c1-45e2-ba62-3e3078a417eb",
		"name": "NSE-STOCKS",
		"schema": "https://schema.getpostman.com/json/collection/v2.1.0/collection.json"
	},
	"item": [
		{
			"name": "NSE-ORIGINAL",
			"item": [
				{
					"name": "Auth-Cookie",
					"event": [
						{
							"listen": "prerequest",
							"script": {
								"id": "e1d5f40f-3c1c-4cd1-8c01-c6a8af38177c",
								"exec": [
									"pm.sendRequest(pm.variables.get('nse_url'), (error, response) => {\r",
									"    if (error) {\r",
									"        console.log(error);\r",
									"    } \r",
									"    else {\r",
									"        for(i in response.headers) {\r",
									"            let nseappId = response.headers.get(\"Set-Cookie\");\r",
									"            if(nseappId!==undefined || nseappId!==null) {\r",
									"                let nseToken = nseappId.split(';'); \r",
									"                pm.variables.set('nseappId', nseToken[0]);\r",
									"            }\r",
									"        }\r",
									"    }\r",
									"    console.log(pm.variables.get('nseappId'));\r",
									"});"
								],
								"type": "text/javascript"
							}
						}
					],
					"request": {
						"method": "GET",
						"header": [],
						"url": {
							"raw": "{{nse_url}}",
							"host": [
								"{{nse_url}}"
							]
						}
					},
					"response": []
				},
				{
					"name": "NSE All Indices",
					"request": {
						"method": "GET",
						"header": [
							{
								"key": "Cookie",
								"value": "{{nseappId}}",
								"type": "text"
							}
						],
						"url": {
							"raw": "{{nse_url}}/api/allIndices",
							"host": [
								"{{nse_url}}"
							],
							"path": [
								"api",
								"allIndices"
							]
						}
					},
					"response": []
				},
				{
					"name": "Equity-StockIndices via index",
					"request": {
						"method": "GET",
						"header": [
							{
								"key": "Cookie",
								"value": "{{nseappId}}",
								"type": "text"
							}
						],
						"url": {
							"raw": "{{nse_url}}/api/equity-stockIndices?index=NIFTY 50",
							"host": [
								"{{nse_url}}"
							],
							"path": [
								"api",
								"equity-stockIndices"
							],
							"query": [
								{
									"key": "index",
									"value": "NIFTY 50"
								}
							]
						}
					},
					"response": []
				},
				{
					"name": "Market Status",
					"request": {
						"method": "GET",
						"header": [],
						"url": {
							"raw": "{{nse_url}}/api/marketStatus",
							"host": [
								"{{nse_url}}"
							],
							"path": [
								"api",
								"marketStatus"
							]
						}
					},
					"response": []
				},
				{
					"name": "Index-Names",
					"request": {
						"method": "GET",
						"header": [],
						"url": {
							"raw": "{{nse_url}}/api/index-names",
							"host": [
								"{{nse_url}}"
							],
							"path": [
								"api",
								"index-names"
							]
						}
					},
					"response": []
				},
				{
					"name": "Equity-Master",
					"request": {
						"method": "GET",
						"header": [],
						"url": {
							"raw": "{{nse_url}}/api/equity-master",
							"host": [
								"{{nse_url}}"
							],
							"path": [
								"api",
								"equity-master"
							]
						}
					},
					"response": []
				},
				{
					"name": "Latest-Circular",
					"request": {
						"method": "GET",
						"header": [],
						"url": {
							"raw": "{{nse_url}}/api/latest-circular",
							"host": [
								"{{nse_url}}"
							],
							"path": [
								"api",
								"latest-circular"
							]
						}
					},
					"response": []
				},
				{
					"name": "Merged-Daily-Reports",
					"request": {
						"method": "GET",
						"header": [],
						"url": {
							"raw": "{{nse_url}}/api/merged-daily-reports?key=favDebt",
							"host": [
								"{{nse_url}}"
							],
							"path": [
								"api",
								"merged-daily-reports"
							],
							"query": [
								{
									"key": "key",
									"value": "favDebt"
								},
								{
									"key": "key",
									"value": "favDerivatives",
									"disabled": true
								},
								{
									"key": "key",
									"value": "favCapital",
									"disabled": true
								}
							]
						}
					},
					"response": []
				},
				{
					"name": "Circulars",
					"request": {
						"method": "GET",
						"header": [],
						"url": {
							"raw": "{{nse_url}}/api/circulars",
							"host": [
								"{{nse_url}}"
							],
							"path": [
								"api",
								"circulars"
							]
						}
					},
					"response": []
				},
				{
					"name": "Live-Analysis-Emerge",
					"request": {
						"method": "GET",
						"header": [],
						"url": {
							"raw": "{{nse_url}}/api/live-analysis-emerge",
							"host": [
								"{{nse_url}}"
							],
							"path": [
								"api",
								"live-analysis-emerge"
							]
						}
					},
					"response": []
				},
				{
					"name": "Sovereign-Gold-Bonds",
					"request": {
						"method": "GET",
						"header": [],
						"url": {
							"raw": "{{nse_url}}/api/sovereign-gold-bonds",
							"host": [
								"{{nse_url}}"
							],
							"path": [
								"api",
								"sovereign-gold-bonds"
							]
						}
					},
					"response": []
				},
				{
					"name": "Other Market Status via market=CMOT",
					"request": {
						"method": "GET",
						"header": [],
						"url": {
							"raw": "{{nse_url}}/api/othermarketStatus?market=CMOT",
							"host": [
								"{{nse_url}}"
							],
							"path": [
								"api",
								"othermarketStatus"
							],
							"query": [
								{
									"key": "market",
									"value": "CMOT"
								}
							]
						}
					},
					"response": []
				},
				{
					"name": "Exchange Traded Funds",
					"request": {
						"method": "GET",
						"header": [],
						"url": {
							"raw": "{{nse_url}}/api/etf",
							"host": [
								"{{nse_url}}"
							],
							"path": [
								"api",
								"etf"
							]
						}
					},
					"response": []
				},
				{
					"name": "NSE Block-Deal",
					"request": {
						"method": "GET",
						"header": [],
						"url": {
							"raw": "{{nse_url}}/api/block-deal",
							"host": [
								"{{nse_url}}"
							],
							"path": [
								"api",
								"block-deal"
							]
						}
					},
					"response": []
				},
				{
					"name": "LiveBonds-Traded-on-cm via Type=Bonds",
					"request": {
						"method": "GET",
						"header": [],
						"url": {
							"raw": "{{nse_url}}/api/liveBonds-traded-on-cm?type=bonds",
							"host": [
								"{{nse_url}}"
							],
							"path": [
								"api",
								"liveBonds-traded-on-cm"
							],
							"query": [
								{
									"key": "type",
									"value": "bonds"
								}
							]
						}
					},
					"response": []
				},
				{
					"name": "LiveCorp-bonds via index=otctrades_listed&marketType=CBM",
					"request": {
						"method": "GET",
						"header": [],
						"url": {
							"raw": "{{nse_url}}/api/liveCorp-bonds?index=otctrades_listed&marketType=CBM",
							"host": [
								"{{nse_url}}"
							],
							"path": [
								"api",
								"liveCorp-bonds"
							],
							"query": [
								{
									"key": "index",
									"value": "otctrades_listed",
									"description": "ONE"
								},
								{
									"key": "marketType",
									"value": "CBM",
									"description": "ONE"
								},
								{
									"key": "index",
									"value": "gsectraded",
									"description": "TWO",
									"disabled": true
								}
							]
						}
					},
					"response": []
				},
				{
					"name": "Negotiated-Trade-Details via isin",
					"request": {
						"method": "GET",
						"header": [],
						"url": {
							"raw": "{{nse_url}}/api/negotiated-trade-details?isin=IN0020160050",
							"host": [
								"{{nse_url}}"
							],
							"path": [
								"api",
								"negotiated-trade-details"
							],
							"query": [
								{
									"key": "isin",
									"value": "IN0020160050"
								}
							]
						}
					},
					"response": []
				},
				{
					"name": "LiveDebt-Trade-Repo via index=primary",
					"request": {
						"method": "GET",
						"header": [],
						"url": {
							"raw": "{{nse_url}}/api/liveDebt-trade-repo?index=primary",
							"host": [
								"{{nse_url}}"
							],
							"path": [
								"api",
								"liveDebt-trade-repo"
							],
							"query": [
								{
									"key": "index",
									"value": "primary"
								}
							]
						}
					},
					"response": []
				},
				{
					"name": "Eqsurvactions via from_date and to_date",
					"request": {
						"method": "GET",
						"header": [],
						"url": {
							"raw": "{{nse_url}}/api/eqsurvactions?from_date=30-07-2020&to_date=30-10-2020",
							"host": [
								"{{nse_url}}"
							],
							"path": [
								"api",
								"eqsurvactions"
							],
							"query": [
								{
									"key": "from_date",
									"value": "30-07-2020",
									"description": "ONE,TWO"
								},
								{
									"key": "to_date",
									"value": "30-10-2020",
									"description": "ONE,TWO"
								},
								{
									"key": "csv",
									"value": "true",
									"description": "TWO",
									"disabled": true
								}
							]
						}
					},
					"response": []
				},
				{
					"name": "Fiii Dii Trade React",
					"request": {
						"method": "GET",
						"header": [],
						"url": {
							"raw": "{{nse_url}}/api/fiidiiTradeReact",
							"host": [
								"{{nse_url}}"
							],
							"path": [
								"api",
								"fiidiiTradeReact"
							]
						}
					},
					"response": []
				},
				{
					"name": "Quote-Bonds via index=NHBTF2014",
					"request": {
						"method": "GET",
						"header": [],
						"url": {
							"raw": "{{nse_url}}/api/quote-bonds?index=NHBTF2014",
							"host": [
								"{{nse_url}}"
							],
							"path": [
								"api",
								"quote-bonds"
							],
							"query": [
								{
									"key": "index",
									"value": "NHBTF2014"
								}
							]
						}
					},
					"response": []
				},
				{
					"name": "Special-Preopen-Listing",
					"request": {
						"method": "GET",
						"header": [],
						"url": {
							"raw": "{{nse_url}}/api/special-preopen-listing",
							"host": [
								"{{nse_url}}"
							],
							"path": [
								"api",
								"special-preopen-listing"
							]
						}
					},
					"response": []
				},
				{
					"name": "New-Listing-Today via index=NewListing",
					"request": {
						"method": "GET",
						"header": [],
						"url": {
							"raw": "{{nse_url}}/api/new-listing-today?index=NewListing",
							"host": [
								"{{nse_url}}"
							],
							"path": [
								"api",
								"new-listing-today"
							],
							"query": [
								{
									"key": "index",
									"value": "NewListing",
									"description": "ONE"
								},
								{
									"key": "index",
									"value": "ForthListing",
									"description": "TWO",
									"disabled": true
								},
								{
									"key": "index",
									"value": "RecentListing",
									"description": "THREE",
									"disabled": true
								}
							]
						}
					},
					"response": []
				},
				{
					"name": "Quote-Equity via symbol=COALINDIA AUTH",
					"request": {
						"method": "GET",
						"header": [
							{
								"key": "Cookie",
								"value": "{{nseappId}}",
								"type": "text"
							}
						],
						"url": {
							"raw": "{{nse_url}}/api/quote-equity?symbol=COALINDIA&section=corp_info",
							"host": [
								"{{nse_url}}"
							],
							"path": [
								"api",
								"quote-equity"
							],
							"query": [
								{
									"key": "symbol",
									"value": "COALINDIA",
									"description": "ONE,TWO,THREE"
								},
								{
									"key": "section",
									"value": "trade_info",
									"description": "TWO",
									"disabled": true
								},
								{
									"key": "section",
									"value": "corp_info",
									"description": "THREE"
								}
							]
						}
					},
					"response": []
				},
				{
					"name": "Annual-Reports",
					"request": {
						"method": "GET",
						"header": [],
						"url": {
							"raw": "{{nse_url}}/api/annual-reports?index=equities&symbol=TCS",
							"host": [
								"{{nse_url}}"
							],
							"path": [
								"api",
								"annual-reports"
							],
							"query": [
								{
									"key": "index",
									"value": "equities"
								},
								{
									"key": "symbol",
									"value": "TCS"
								}
							]
						}
					},
					"response": []
				},
				{
					"name": "Corporate-Board-Meetings via Index",
					"request": {
						"method": "GET",
						"header": [],
						"url": {
							"raw": "{{nse_url}}/api/corporate-board-meetings?index=equities",
							"host": [
								"{{nse_url}}"
							],
							"path": [
								"api",
								"corporate-board-meetings"
							],
							"query": [
								{
									"key": "index",
									"value": "equities"
								}
							]
						}
					},
					"response": []
				},
				{
					"name": "Corporate-Board-Meetings-Subject via index=sme",
					"request": {
						"method": "GET",
						"header": [],
						"url": {
							"raw": "{{nse_url}}/api/corporate-board-meetings-subject?index=sme",
							"host": [
								"{{nse_url}}"
							],
							"path": [
								"api",
								"corporate-board-meetings-subject"
							],
							"query": [
								{
									"key": "index",
									"value": "sme"
								}
							]
						}
					},
					"response": []
				},
				{
					"name": "Investor-Complaints",
					"request": {
						"method": "GET",
						"header": [],
						"url": {
							"raw": "{{nse_url}}/api/investor-complaints",
							"host": [
								"{{nse_url}}"
							],
							"path": [
								"api",
								"investor-complaints"
							]
						}
					},
					"response": []
				},
				{
					"name": "Nifty Bank Derivatives - Historical",
					"request": {
						"method": "GET",
						"header": [],
						"url": {
							"raw": "{{nse_old_url}}/live_market/dynaContent/live_analysis/most_active/bankNiftyHistory.json",
							"host": [
								"{{nse_old_url}}"
							],
							"path": [
								"live_market",
								"dynaContent",
								"live_analysis",
								"most_active",
								"bankNiftyHistory.json"
							]
						}
					},
					"response": []
				}
			],
			"protocolProfileBehavior": {}
		},
		{
			"name": "NSE-Archive-Original",
			"item": [
				{
					"name": "SEBI Debarred Entities",
					"request": {
						"method": "GET",
						"header": [
							{
								"key": "content-type",
								"value": "application/vnd.ms-excel",
								"type": "text",
								"disabled": true
							},
							{
								"key": "accept-encoding",
								"value": "gzip, deflate, br",
								"type": "text"
							},
							{
								"key": "accept-language",
								"value": "en-US,en;q=0.9",
								"type": "text"
							}
						],
						"url": {
							"raw": "{{archive_nse_url}}/content/press/prs_ra_sebi.xls",
							"host": [
								"{{archive_nse_url}}"
							],
							"path": [
								"content",
								"press",
								"prs_ra_sebi.xls"
							]
						}
					},
					"response": []
				},
				{
					"name": "Companies_proposed_to_be_delisted",
					"request": {
						"method": "GET",
						"header": [],
						"url": {
							"raw": "{{archive_nse_url}}/content/equities/Companies_proposed_to_be_delisted.xlsx",
							"host": [
								"{{archive_nse_url}}"
							],
							"path": [
								"content",
								"equities",
								"Companies_proposed_to_be_delisted.xlsx"
							]
						}
					},
					"response": []
				},
				{
					"name": "Equities-Delisted Excel",
					"request": {
						"method": "GET",
						"header": [],
						"url": {
							"raw": "{{archive_nse_url}}/content/equities/delisted.xlsx",
							"host": [
								"{{archive_nse_url}}"
							],
							"path": [
								"content",
								"equities",
								"delisted.xlsx"
							]
						}
					},
					"response": []
				},
				{
					"name": "ShortSelling via csv",
					"request": {
						"method": "GET",
						"header": [],
						"url": {
							"raw": "{{archive_nse_url}}/content/equities/ShortSelling.csv",
							"host": [
								"{{archive_nse_url}}"
							],
							"path": [
								"content",
								"equities",
								"ShortSelling.csv"
							]
						}
					},
					"response": []
				},
				{
					"name": "Daily Volatility - CSV",
					"request": {
						"method": "GET",
						"header": [],
						"url": {
							"raw": "{{archive_nse_url}}/archives/nsccl/volt/CMVOLT_30102020.CSV",
							"host": [
								"{{archive_nse_url}}"
							],
							"path": [
								"archives",
								"nsccl",
								"volt",
								"CMVOLT_30102020.CSV"
							]
						}
					},
					"response": []
				},
				{
					"name": "Corporate Bonds Traded Report (csv)",
					"request": {
						"method": "GET",
						"header": [],
						"url": {
							"raw": "{{archive_nse_url}}/archives/equities/corpbond/corpbond301020.csv",
							"host": [
								"{{archive_nse_url}}"
							],
							"path": [
								"archives",
								"equities",
								"corpbond",
								"corpbond301020.csv"
							]
						}
					},
					"response": []
				},
				{
					"name": "Market Activity Report",
					"request": {
						"method": "GET",
						"header": [],
						"url": {
							"raw": "{{archive_nse_url}}/archives/equities/mkt/MA301020.csv",
							"host": [
								"{{archive_nse_url}}"
							],
							"path": [
								"archives",
								"equities",
								"mkt",
								"MA301020.csv"
							]
						}
					},
					"response": []
				},
				{
					"name": "SME Bhavcopy File",
					"request": {
						"method": "GET",
						"header": [],
						"url": {
							"raw": "{{archive_nse_url}}/archives/sme/bhavcopy/sme301020.csv",
							"host": [
								"{{archive_nse_url}}"
							],
							"path": [
								"archives",
								"sme",
								"bhavcopy",
								"sme301020.csv"
							]
						}
					},
					"response": []
				},
				{
					"name": "Upper Circuit Breaker",
					"request": {
						"method": "GET",
						"header": [],
						"url": {
							"raw": "{{archive_nse_url}}/products/content/equities/equities/circuit_30102020.csv",
							"host": [
								"{{archive_nse_url}}"
							],
							"path": [
								"products",
								"content",
								"equities",
								"equities",
								"circuit_30102020.csv"
							]
						}
					},
					"response": []
				},
				{
					"name": "52 Week High Low Report",
					"request": {
						"method": "GET",
						"header": [],
						"url": {
							"raw": "{{archive_nse_url}}/content/CM_52_wk_High_low_30102020.csv",
							"host": [
								"{{archive_nse_url}}"
							],
							"path": [
								"content",
								"CM_52_wk_High_low_30102020.csv"
							]
						}
					},
					"response": []
				},
				{
					"name": "Margin Trading Disclosure",
					"request": {
						"method": "GET",
						"header": [],
						"url": {
							"raw": "{{archive_nse_url}}/content/equities/mrg_trading.csv",
							"host": [
								"{{archive_nse_url}}"
							],
							"path": [
								"content",
								"equities",
								"mrg_trading.csv"
							]
						}
					},
					"response": []
				},
				{
					"name": "Security Wise Delivery Position",
					"request": {
						"method": "GET",
						"header": [],
						"url": {
							"raw": "{{archive_nse_url}}/archives/equities/mto/MTO_30102020.DAT",
							"host": [
								"{{archive_nse_url}}"
							],
							"path": [
								"archives",
								"equities",
								"mto",
								"MTO_30102020.DAT"
							]
						}
					},
					"response": []
				},
				{
					"name": "Full Bhavcopy and Security Delivery Position",
					"request": {
						"method": "GET",
						"header": [],
						"url": {
							"raw": "{{archive_nse_url}}/products/content/sec_bhavdata_full_30102020.csv",
							"host": [
								"{{archive_nse_url}}"
							],
							"path": [
								"products",
								"content",
								"sec_bhavdata_full_30102020.csv"
							]
						}
					},
					"response": []
				},
				{
					"name": "Latency_Statistics",
					"request": {
						"method": "GET",
						"header": [],
						"url": {
							"raw": "{{archive_nse_url}}/content/CM_Latency_stats29102020.csv",
							"host": [
								"{{archive_nse_url}}"
							],
							"path": [
								"content",
								"CM_Latency_stats29102020.csv"
							]
						}
					},
					"response": []
				},
				{
					"name": "Price Band Changes for Next Trade Date",
					"request": {
						"method": "GET",
						"header": [],
						"url": {
							"raw": "{{archive_nse_url}}/content/equities/eq_band_changes_02112020.csv",
							"host": [
								"{{archive_nse_url}}"
							],
							"path": [
								"content",
								"equities",
								"eq_band_changes_02112020.csv"
							]
						}
					},
					"response": []
				},
				{
					"name": "NSE Bulk Deal",
					"request": {
						"method": "GET",
						"header": [],
						"url": {
							"raw": "{{archive_nse_url}}/content/equities/bulk.csv",
							"host": [
								"{{archive_nse_url}}"
							],
							"path": [
								"content",
								"equities",
								"bulk.csv"
							]
						}
					},
					"response": []
				},
				{
					"name": "NSE Block Deal",
					"request": {
						"method": "GET",
						"header": [],
						"url": {
							"raw": "{{archive_nse_url}}/content/equities/block.csv",
							"host": [
								"{{archive_nse_url}}"
							],
							"path": [
								"content",
								"equities",
								"block.csv"
							]
						}
					},
					"response": []
				},
				{
					"name": "SME Band Complete",
					"request": {
						"method": "GET",
						"header": [],
						"url": {
							"raw": "{{archive_nse_url}}/sme/content/price_band/archieves/sme_bands_complete_30102020.csv",
							"host": [
								"{{archive_nse_url}}"
							],
							"path": [
								"sme",
								"content",
								"price_band",
								"archieves",
								"sme_bands_complete_30102020.csv"
							]
						}
					},
					"response": []
				},
				{
					"name": "Category wise Turnover",
					"request": {
						"method": "GET",
						"header": [],
						"url": {
							"raw": "{{archive_nse_url}}/archives/equities/cat/cat_turnover_281020.xls",
							"host": [
								"{{archive_nse_url}}"
							],
							"path": [
								"archives",
								"equities",
								"cat",
								"cat_turnover_281020.xls"
							]
						}
					},
					"response": []
				},
				{
					"name": "STT Non-applicability Report (csv)",
					"request": {
						"method": "GET",
						"header": [],
						"url": {
							"raw": "{{archive_nse_url}}/content/equities/C_STT_30102020.csv",
							"host": [
								"{{archive_nse_url}}"
							],
							"path": [
								"content",
								"equities",
								"C_STT_30102020.csv"
							]
						}
					},
					"response": []
				},
				{
					"name": "STT Equity Oriented Funds (csv)",
					"request": {
						"method": "GET",
						"header": [],
						"url": {
							"raw": "{{archive_nse_url}}/content/equities/C_STT_IND_30102020.csv",
							"host": [
								"{{archive_nse_url}}"
							],
							"path": [
								"content",
								"equities",
								"C_STT_IND_30102020.csv"
							]
						}
					},
					"response": []
				},
				{
					"name": "Haircut for Mutual Fundss",
					"request": {
						"method": "GET",
						"header": [],
						"url": {
							"raw": "{{archive_nse_url}}/archives/equities/mf_haircut/MF_VAR_30102020.csv",
							"host": [
								"{{archive_nse_url}}"
							],
							"path": [
								"archives",
								"equities",
								"mf_haircut",
								"MF_VAR_30102020.csv"
							]
						}
					},
					"response": []
				},
				{
					"name": "Haircut for Approved Securiites(csv)",
					"request": {
						"method": "GET",
						"header": [],
						"url": {
							"raw": "{{archive_nse_url}}/content/equities/APPSEC_COLLVAL_30102020.csv",
							"host": [
								"{{archive_nse_url}}"
							],
							"path": [
								"content",
								"equities",
								"APPSEC_COLLVAL_30102020.csv"
							]
						}
					},
					"response": []
				},
				{
					"name": "List of securities for auction (csv)",
					"request": {
						"method": "GET",
						"header": [],
						"url": {
							"raw": "{{archive_nse_url}}/content/nsccl/AUB_2020207_29102020.csv",
							"host": [
								"{{archive_nse_url}}"
							],
							"path": [
								"content",
								"nsccl",
								"AUB_2020207_29102020.csv"
							]
						}
					},
					"response": []
				}
			],
			"event": [
				{
					"listen": "prerequest",
					"script": {
						"id": "bc2a3ee1-a2e6-47a3-96b8-021e8c129207",
						"type": "text/javascript",
						"exec": [
							""
						]
					}
				},
				{
					"listen": "test",
					"script": {
						"id": "c70e2d14-4dd7-4388-9136-3cc2cc069167",
						"type": "text/javascript",
						"exec": [
							""
						]
					}
				}
			],
			"protocolProfileBehavior": {}
		},
		{
			"name": "NSE-FPI-Original",
			"item": [
				{
					"name": "Reports RegisteredFIISAFPI via action=getregdata",
					"protocolProfileBehavior": {
						"disableBodyPruning": true
					},
					"request": {
						"method": "GET",
						"header": [],
						"body": {
							"mode": "raw",
							"raw": "",
							"options": {
								"raw": {
									"language": "json"
								}
							}
						},
						"url": {
							"raw": "{{fpi_nsdl_url}}/web/Reports/RegisteredFIISAFPI.aspx?action=getregdata",
							"host": [
								"{{fpi_nsdl_url}}"
							],
							"path": [
								"web",
								"Reports",
								"RegisteredFIISAFPI.aspx"
							],
							"query": [
								{
									"key": "action",
									"value": "getregdata"
								}
							]
						}
					},
					"response": []
				}
			],
			"protocolProfileBehavior": {}
		}
	],
	"event": [
		{
			"listen": "prerequest",
			"script": {
				"id": "40af9856-92dc-4f34-9757-ecc0a9d03b5d",
				"type": "text/javascript",
				"exec": [
					"pm.sendRequest(pm.variables.get('nse_url'), (error, response) => {",
					"    if (error) {",
					"        console.log(error);",
					"    } ",
					"    else {",
					"        for(i in response.headers) {",
					"            let nseappId = response.headers.get(\"Set-Cookie\");",
					"            if(nseappId!==undefined || nseappId!==null) {",
					"                let nseToken = nseappId.split(';'); ",
					"                pm.collectionVariables.set('nseappId', nseToken[0]);",
					"            }",
					"        }",
					"    }",
					"    console.log(pm.collectionVariables.get('nseappId'));",
					"});"
				]
			}
		},
		{
			"listen": "test",
			"script": {
				"id": "ed20f967-9c68-43af-bf12-96ca26931560",
				"type": "text/javascript",
				"exec": [
					""
				]
			}
		}
	],
	"variable": [
		{
			"id": "4a1d96a5-61cf-4112-8350-e329d42e5626",
			"key": "nse_url",
			"value": "https://www.nseindia.com/"
		},
		{
			"id": "56ccebb7-9d3e-4d74-af62-f63cc9bbe139",
			"key": "archive_nse_url",
			"value": "https://archives.nseindia.com"
		},
		{
			"id": "12564cf9-6c64-4aac-a08e-7d0c18f95717",
			"key": "fpi_nsdl_url",
			"value": "https://www.fpi.nsdl.co.in"
		},
		{
			"id": "c9fb6f08-b94d-480f-9c77-a1f152da6b10",
			"key": "nse_old_url",
			"value": "https://www1.nseindia.com"
		},
		{
			"id": "ac24cf66-e879-4589-81a1-b03bbfa6b5db",
			"key": "nseappId",
			"value": ""
		}
	],
	"protocolProfileBehavior": {}
}